%YAML 1.1
%TAG !u! tag:unity3d.com,2011:
--- !u!1045 &1
EditorBuildSettings:
  m_ObjectHideFlags: 0
  serializedVersion: 2
  m_Scenes:
  - enabled: 1
    path: Assets/Tela.unity
    guid: 88f633e32be1a28448b0015abc12d935
  - enabled: 1
    path: Assets/Capybara1.unity
    guid: 6f0c2e1a3040537448f6b3ea6fbde7a4
  - enabled: 0
    path: Assets/MenuInicial.unity
    guid: 00000000000000000000000000000000
